code/build/cpu_wavedata.vcd
$date
	Sat May  6 22:36:29 2023
$end
$version
	Icarus Verilog
$end
$timescale
	100ps
$end
$scope module testbenchCPU $end
$var wire 3 ! memWrite [2:0] $end
$var wire 4 " memRead [3:0] $end
$var wire 1 # insReadEn $end
$var wire 32 $ WRITE_DATA [31:0] $end
$var wire 32 % READ_DATA [31:0] $end
$var wire 32 & PC [31:0] $end
$var wire 128 ' MAIN_MEM_WRITE_DATA [127:0] $end
$var wire 1 ( MAIN_MEM_WRITE $end
$var wire 128 ) MAIN_MEM_READ_DATA [127:0] $end
$var wire 1 * MAIN_MEM_READ $end
$var wire 1 + MAIN_MEM_BUSY_WAIT $end
$var wire 28 , MAIN_MEM_ADDRESS [27:0] $end
$var wire 128 - INS_MEM_READ_DATA [127:0] $end
$var wire 1 . INS_MEM_READ $end
$var wire 1 / INS_MEM_BUSY_WAIT $end
$var wire 28 0 INS_MEM_ADDRESS [27:0] $end
$var wire 1 1 INS_CACHE_BUSY_WAIT $end
$var wire 32 2 INS [31:0] $end
$var wire 1 3 BUSY_WAIT $end
$var wire 32 4 ADDRESS [31:0] $end
$var reg 1 5 CLK $end
$var reg 1 6 RESET $end
$scope module myCacheMemory $end
$var wire 1 7 TAG_MATCH $end
$var wire 128 8 block [127:0] $end
$var wire 1 5 clock $end
$var wire 1 6 reset $end
$var wire 32 9 writedata [31:0] $end
$var wire 3 : write [2:0] $end
$var wire 25 ; tag [24:0] $end
$var wire 4 < read [3:0] $end
$var wire 2 = offset [1:0] $end
$var wire 3 > index [2:0] $end
$var wire 2 ? byte_offset [1:0] $end
$var wire 32 @ address [31:0] $end
$var wire 128 A MAIN_MEM_READ_DATA [127:0] $end
$var wire 1 + MAIN_MEM_BUSY_WAIT $end
$var reg 128 B CURRENT_DATA [127:0] $end
$var reg 1 C CURRENT_DIRTY $end
$var reg 25 D CURRENT_TAG [24:0] $end
$var reg 1 E CURRENT_VALID $end
$var reg 28 F MAIN_MEM_ADDRESS [27:0] $end
$var reg 1 * MAIN_MEM_READ $end
$var reg 1 ( MAIN_MEM_WRITE $end
$var reg 128 G MAIN_MEM_WRITE_DATA [127:0] $end
$var reg 1 3 busywait $end
$var reg 32 H cache_readdata [31:0] $end
$var reg 32 I cache_writedata [31:0] $end
$var reg 2 J next_state [1:0] $end
$var reg 1 K readCache $end
$var reg 1 L readaccess $end
$var reg 32 M readdata [31:0] $end
$var reg 2 N state [1:0] $end
$var reg 1 O writeCache $end
$var reg 1 P writeCache_mem $end
$var reg 32 Q write_mask [31:0] $end
$var reg 1 R writeaccess $end
$var integer 32 S i [31:0] $end
$upscope $end
$scope module myDataMem $end
$var wire 28 T address [27:0] $end
$var wire 1 5 clock $end
$var wire 1 * read $end
$var wire 1 6 reset $end
$var wire 1 ( write $end
$var wire 128 U writedata [127:0] $end
$var reg 1 + busywait $end
$var reg 1 V readaccess $end
$var reg 128 W readdata [127:0] $end
$var reg 1 X writeaccess $end
$var integer 32 Y i [31:0] $end
$upscope $end
$scope module myInsCacheMemory $end
$var wire 1 5 clock $end
$var wire 1 6 reset $end
$var wire 25 Z tag [24:0] $end
$var wire 1 # read $end
$var wire 2 [ offset [1:0] $end
$var wire 3 \ index [2:0] $end
$var wire 32 ] address [31:0] $end
$var wire 1 ^ TAG_MATCH $end
$var wire 128 _ MAIN_MEM_READ_DATA [127:0] $end
$var wire 1 / MAIN_MEM_BUSY_WAIT $end
$var reg 32 ` CURRENT_DATA [31:0] $end
$var reg 25 a CURRENT_TAG [24:0] $end
$var reg 1 b CURRENT_VALID $end
$var reg 28 c MAIN_MEM_ADDRESS [27:0] $end
$var reg 1 . MAIN_MEM_READ $end
$var reg 1 1 busywait $end
$var reg 2 d next_state [1:0] $end
$var reg 1 e readCache $end
$var reg 1 f readaccess $end
$var reg 32 g readdata [31:0] $end
$var reg 2 h state [1:0] $end
$var reg 128 i temp [127:0] $end
$var reg 1 j writeCache_mem $end
$var integer 32 k i [31:0] $end
$upscope $end
$scope module myInsMem $end
$var wire 28 l ADDRESS [27:0] $end
$var wire 1 5 CLK $end
$var wire 1 . READ $end
$var reg 1 / BUSYWAIT $end
$var reg 128 m READDATA [127:0] $end
$var reg 1 n READ_ACCESS $end
$upscope $end
$scope module mycpu $end
$var wire 1 5 CLK $end
$var wire 32 o DATA_CACHE_ADDR [31:0] $end
$var wire 1 3 DATA_CACHE_BUSY_WAIT $end
$var wire 32 p DATA_CACHE_DATA [31:0] $end
$var wire 32 q DATA_CACHE_READ_DATA [31:0] $end
$var wire 1 r FLUSH $end
$var wire 32 s INSTRUCTION [31:0] $end
$var wire 1 1 INS_CACHE_BUSY_WAIT $end
$var wire 4 t MEM_READ_S2 [3:0] $end
$var wire 32 u PC_NEXT [31:0] $end
$var wire 1 6 RESET $end
$var wire 4 v memReadEn [3:0] $end
$var wire 3 w memWriteEn [2:0] $end
$var wire 2 x REG_WRITE_SELECT_S2 [1:0] $end
$var wire 1 y REG_WRITE_EN_S2 $end
$var wire 32 z REG_WRITE_DATA [31:0] $end
$var wire 1 { OPERAND2_SEL $end
$var wire 1 | OPERAND1_SEL $end
$var wire 2 } OP2_HAZ_MUX_SEL [1:0] $end
$var wire 32 ~ OP2_HAZ_MUX_OUT [31:0] $end
$var wire 2 !" OP1_HAZ_MUX_SEL [1:0] $end
$var wire 32 "" OP1_HAZ_MUX_OUT [31:0] $end
$var wire 3 #" MEM_WRITE_S2 [2:0] $end
$var wire 4 $" IMMEDIATE_SELECT [3:0] $end
$var wire 32 %" IMMEDIATE_OUT_S2 [31:0] $end
$var wire 1 &" HAZ_MUX_SEL $end
$var wire 32 '" HAZ_MUX_OUT [31:0] $end
$var wire 32 (" DATA2_S2 [31:0] $end
$var wire 32 )" DATA1_S2 [31:0] $end
$var wire 1 *" BRANCH_SELECT_OUT $end
$var wire 4 +" BRANCH_SELECT [3:0] $end
$var wire 6 ," ALU_SELECT [5:0] $end
$var wire 32 -" ALU_OUT [31:0] $end
$var wire 32 ." ALU_IN_2 [31:0] $end
$var wire 32 /" ALU_IN_1 [31:0] $end
$var reg 32 0" PC [31:0] $end
$var reg 32 1" PC_PLUS_4 [31:0] $end
$var reg 32 2" PR_ALU_OUT_S3 [31:0] $end
$var reg 32 3" PR_ALU_OUT_S4 [31:0] $end
$var reg 6 4" PR_ALU_SELECT [5:0] $end
$var reg 4 5" PR_BRANCH_SELECT_S2 [3:0] $end
$var reg 32 6" PR_DATA_1_S2 [31:0] $end
$var reg 32 7" PR_DATA_2_S2 [31:0] $end
$var reg 32 8" PR_DATA_2_S3 [31:0] $end
$var reg 32 9" PR_DATA_CACHE_OUT [31:0] $end
$var reg 32 :" PR_IMMEDIATE_SELECT_OUT [31:0] $end
$var reg 32 ;" PR_INSTRUCTION [31:0] $end
$var reg 4 <" PR_MEM_READ_S2 [3:0] $end
$var reg 4 =" PR_MEM_READ_S3 [3:0] $end
$var reg 4 >" PR_MEM_READ_S4 [3:0] $end
$var reg 3 ?" PR_MEM_WRITE_S2 [2:0] $end
$var reg 3 @" PR_MEM_WRITE_S3 [2:0] $end
$var reg 1 A" PR_OPERAND1_SEL $end
$var reg 1 B" PR_OPERAND2_SEL $end
$var reg 32 C" PR_PC_S1 [31:0] $end
$var reg 32 D" PR_PC_S2 [31:0] $end
$var reg 32 E" PR_PC_S3 [31:0] $end
$var reg 32 F" PR_PC_S4 [31:0] $end
$var reg 5 G" PR_REGISTER_WRITE_ADDR_S2 [4:0] $end
$var reg 5 H" PR_REGISTER_WRITE_ADDR_S3 [4:0] $end
$var reg 5 I" PR_REGISTER_WRITE_ADDR_S4 [4:0] $end
$var reg 5 J" PR_REGISTER_WRITE_ADDR_S5 [4:0] $end
$var reg 1 K" PR_REG_WRITE_EN_S2 $end
$var reg 1 L" PR_REG_WRITE_EN_S3 $end
$var reg 1 M" PR_REG_WRITE_EN_S4 $end
$var reg 1 N" PR_REG_WRITE_EN_S5 $end
$var reg 2 O" PR_REG_WRITE_SELECT_S2 [1:0] $end
$var reg 2 P" PR_REG_WRITE_SELECT_S3 [1:0] $end
$var reg 2 Q" PR_REG_WRITE_SELECT_S4 [1:0] $end
$var reg 5 R" REG_READ_ADDR1_S2 [4:0] $end
$var reg 5 S" REG_READ_ADDR2_S2 [4:0] $end
$var reg 5 T" REG_READ_ADDR2_S3 [4:0] $end
$var reg 32 U" REG_WRITE_DATA_S5 [31:0] $end
$var reg 1 # insReadEn $end
$scope module myAlu $end
$var wire 32 V" INTER_AND [31:0] $end
$var wire 32 W" INTER_FWD [31:0] $end
$var wire 32 X" INTER_OR [31:0] $end
$var wire 32 Y" INTER_XOR [31:0] $end
$var wire 6 Z" SELECT [5:0] $end
$var wire 32 [" INTER_SUB [31:0] $end
$var wire 32 \" INTER_SRL [31:0] $end
$var wire 32 ]" INTER_SRA [31:0] $end
$var wire 32 ^" INTER_SLTU [31:0] $end
$var wire 32 _" INTER_SLT [31:0] $end
$var wire 32 `" INTER_SLL [31:0] $end
$var wire 32 a" INTER_REMU [31:0] $end
$var wire 32 b" INTER_REM [31:0] $end
$var wire 32 c" INTER_MULHU [31:0] $end
$var wire 32 d" INTER_MULHSU [31:0] $end
$var wire 32 e" INTER_MUL [31:0] $end
$var wire 32 f" INTER_DIV [31:0] $end
$var wire 32 g" INTER_ADD [31:0] $end
$var wire 32 h" DATA2 [31:0] $end
$var wire 32 i" DATA1 [31:0] $end
$var reg 32 j" RESULT [31:0] $end
$upscope $end
$scope module myBranchSelect $end
$var wire 4 k" SELECT [3:0] $end
$var wire 32 l" DATA2 [31:0] $end
$var wire 32 m" DATA1 [31:0] $end
$var wire 1 n" BNE $end
$var wire 1 o" BLTU $end
$var wire 1 p" BLT $end
$var wire 1 q" BGEU $end
$var wire 1 r" BGE $end
$var wire 1 s" BEQ $end
$var reg 1 *" MUX_OUT $end
$upscope $end
$scope module myControl $end
$var wire 32 t" INSTRUCTION [31:0] $end
$var wire 1 6 RESET $end
$var wire 1 u" funct3_mux_select $end
$var wire 1 | operand_1_select $end
$var wire 1 { operand_2_select $end
$var wire 1 y reg_file_write $end
$var wire 2 v" reg_write_select [1:0] $end
$var wire 7 w" opcode [6:0] $end
$var wire 3 x" main_mem_write [2:0] $end
$var wire 4 y" main_mem_read [3:0] $end
$var wire 4 z" immediate_select [3:0] $end
$var wire 7 {" funct7 [6:0] $end
$var wire 3 |" funct3 [2:0] $end
$var wire 4 }" branch_control [3:0] $end
$var wire 6 ~" alu_signal [5:0] $end
$scope module funct3_mux $end
$var wire 3 !# INPUT1 [2:0] $end
$var wire 3 "# INPUT2 [2:0] $end
$var wire 1 u" SELECT $end
$var reg 3 ## RESULT [2:0] $end
$upscope $end
$upscope $end
$scope module myImmediate $end
$var wire 32 $# INSTRUCTION [31:0] $end
$var wire 4 %# SELECT [3:0] $end
$var wire 5 &# TYPE6 [4:0] $end
$var wire 12 '# TYPE5 [11:0] $end
$var wire 12 (# TYPE4 [11:0] $end
$var wire 12 )# TYPE3 [11:0] $end
$var wire 20 *# TYPE2 [19:0] $end
$var wire 20 +# TYPE1 [19:0] $end
$var reg 32 ,# OUTPUT [31:0] $end
$upscope $end
$scope module myStage3Forwarding $end
$var wire 5 -# ADDR1 [4:0] $end
$var wire 5 .# ADDR2 [4:0] $end
$var wire 1 /# MEM_WRITE $end
$var wire 1 A" OP1_MUX $end
$var wire 1 B" OP2_MUX $end
$var wire 5 0# STAGE_3_ADDR [4:0] $end
$var wire 1 L" STAGE_3_REGWRITE_EN $end
$var wire 5 1# STAGE_4_ADDR [4:0] $end
$var wire 1 M" STAGE_4_REGWRITE_EN $end
$var wire 5 2# STAGE_5_EXTRA_ADDR [4:0] $end
$var wire 1 N" STAGE_5_EXTRA_REGWRITE_EN $end
$var reg 2 3# OP1_MUX_OUT [1:0] $end
$var reg 2 4# OP2_MUX_OUT [1:0] $end
$upscope $end
$scope module myreg $end
$var wire 1 5 CLK $end
$var wire 5 5# INADDRESS [4:0] $end
$var wire 32 6# OUT1 [31:0] $end
$var wire 5 7# OUT1ADDRESS [4:0] $end
$var wire 32 8# OUT2 [31:0] $end
$var wire 5 9# OUT2ADDRESS [4:0] $end
$var wire 1 6 RESET $end
$var wire 1 K" WRITE_EN $end
$var wire 32 :# IN [31:0] $end
$var integer 32 ;# i [31:0] $end
$upscope $end
$scope module operand1_mux $end
$var wire 32 <# INPUT2 [31:0] $end
$var wire 1 A" SELECT $end
$var wire 32 =# INPUT1 [31:0] $end
$var reg 32 ># RESULT [31:0] $end
$upscope $end
$scope module operand1_mux_haz $end
$var wire 32 ?# INPUT1 [31:0] $end
$var wire 32 @# INPUT2 [31:0] $end
$var wire 32 A# INPUT4 [31:0] $end
$var wire 2 B# SELECT [1:0] $end
$var wire 32 C# INPUT3 [31:0] $end
$var reg 32 D# RESULT [31:0] $end
$upscope $end
$scope module operand2_mux $end
$var wire 32 E# INPUT2 [31:0] $end
$var wire 1 B" SELECT $end
$var wire 32 F# INPUT1 [31:0] $end
$var reg 32 G# RESULT [31:0] $end
$upscope $end
$scope module operand2_mux_haz $end
$var wire 32 H# INPUT1 [31:0] $end
$var wire 32 I# INPUT2 [31:0] $end
$var wire 32 J# INPUT4 [31:0] $end
$var wire 2 K# SELECT [1:0] $end
$var wire 32 L# INPUT3 [31:0] $end
$var reg 32 M# RESULT [31:0] $end
$upscope $end
$scope module regWriteSelMUX $end
$var wire 32 N# INPUT1 [31:0] $end
$var wire 32 O# INPUT2 [31:0] $end
$var wire 32 P# INPUT3 [31:0] $end
$var wire 32 Q# INPUT4 [31:0] $end
$var wire 2 R# SELECT [1:0] $end
$var reg 32 S# RESULT [31:0] $end
$upscope $end
$scope module stage4_forward_unit $end
$var wire 5 T# REG_READ_ADDR2_S3 [4:0] $end
$var wire 5 U# STAGE4_REG_ADDR [4:0] $end
$var wire 32 V# STAGE_3_DATA [31:0] $end
$var wire 1 W# STAGE_3_MEM_WRITE $end
$var wire 1 X# STAGE_4_MEM_READ $end
$var reg 1 &" MUX_OUT $end
$upscope $end
$scope module stage4_forward_unit_mux $end
$var wire 32 Y# INPUT1 [31:0] $end
$var wire 32 Z# INPUT2 [31:0] $end
$var wire 1 &" SELECT $end
$var reg 32 [# RESULT [31:0] $end
$upscope $end
$upscope $end
$upscope $end
$enddefinitions $end
#0
$dumpvars
b0 [#
b0 Z#
b0 Y#
xX#
0W#
bz V#
b0 U#
bx T#
b0 S#
b0 R#
b0 Q#
b0 P#
b0 O#
b0 N#
b0 M#
b0 L#
b0 K#
bx J#
b0 I#
b0 H#
b0 G#
b0 F#
b0 E#
b0 D#
b0 C#
b0 B#
bx A#
b0 @#
b0 ?#
b0 >#
b0 =#
b0 <#
b100000 ;#
b0 :#
b0 9#
b0 8#
b0 7#
b0 6#
b0 5#
b0 4#
b0 3#
bx 2#
b0 1#
b0 0#
0/#
bx .#
bx -#
bx ,#
b0 +#
b0 *#
b0 )#
b0 (#
b0 '#
b0 &#
bx %#
b0 $#
b0 ##
b0 "#
b0 !#
bzxx000 ~"
bx }"
b0 |"
b0 {"
bx z"
bx y"
bx x"
b0 w"
bx v"
xu"
b0 t"
1s"
1r"
1q"
0p"
0o"
0n"
b0 m"
b0 l"
b0 k"
b0 j"
b0 i"
b0 h"
b0 g"
bx f"
b0 e"
b0 d"
b0 c"
bx b"
bx a"
b0 `"
b0 _"
b0 ^"
b0 ]"
b0 \"
b0 ["
b0 Z"
b0 Y"
b0 X"
b0 W"
b0 V"
bx U"
bx T"
bx S"
bx R"
b0 Q"
b0 P"
b0 O"
xN"
0M"
0L"
0K"
bx J"
b0 I"
b0 H"
b0 G"
b0 F"
b0 E"
b0 D"
b0 C"
0B"
0A"
b0 @"
b0 ?"
bx >"
b0 ="
b0 <"
b0 ;"
b0 :"
b0 9"
b0 8"
b0 7"
b0 6"
b0 5"
b0 4"
b0 3"
b0 2"
b0 1"
b11111111111111111111111111111100 0"
b0 /"
b0 ."
b0 -"
bzxx000 ,"
bx +"
x*"
b0 )"
b0 ("
b0 '"
0&"
bx %"
bx $"
bx #"
b0 ""
b0 !"
b0 ~
b0 }
x|
x{
b0 z
xy
bx x
b0 w
b0 v
bz u
bz t
bx s
xr
bx q
b0 p
b0 o
0n
bx m
bx l
b1000 k
xj
bx i
b0 h
bx g
xf
xe
b0 d
bx c
0b
bx a
b0 `
bx _
x^
b11111111111111111111111111111100 ]
b111 \
b11 [
b1111111111111111111111111 Z
b100000000 Y
0X
bx W
0V
bx U
bx T
b1000 S
0R
b11111111111111111111111100000000 Q
xP
xO
b0 N
bx M
0L
xK
b0 J
b0 I
bx H
bx G
bx F
0E
bx D
0C
b0 B
bx A
b0 @
b0 ?
b0 >
b0 =
b0 <
b0 ;
b0 :
b0 9
b0 8
x7
16
15
b0 4
03
bx 2
01
bx 0
0/
x.
bx -
bx ,
0+
x*
bx )
x(
bx '
b11111111111111111111111111111100 &
bx %
b0 $
0#
b0 "
b0 !
$end
#10
bx )"
bx 6#
bx 7#
bx ("
bx 8#
bx 9#
bx w"
bx |"
bx !#
bx {"
bx +#
bx *#
bx )#
bx (#
bx '#
bx &#
b11111111111111111111111111111100 C"
bx ;"
bx t"
bx $#
x/#
xK"
bx O"
bx ?"
bz <"
xB"
xA"
bzxx000 4"
bzxx000 Z"
bx 5"
bx k"
b0 S"
b0 .#
b0 R"
b0 -#
bx :"
bx E#
0X#
bx z
bx :#
bx C#
bx L#
bx S#
b0 >"
bx 9"
bx N#
bx Z#
0N"
b0 J"
b0 2#
b0 U"
b0 A#
b0 J#
#40
0r
0*"
#100
05
#200
b0 z
b0 :#
b0 C#
b0 L#
b0 S#
0/#
b0 )"
b0 6#
b0 7#
b0 ("
b0 8#
b0 9#
b0 w"
b0 |"
b0 !#
b0 {"
b0 +#
b0 *#
b0 )#
b0 (#
b0 '#
b0 &#
b0 9"
b0 N#
b0 Z#
0K"
b0 O"
b0 ?"
0B"
0A"
b0 4"
b0 Z"
b0 <"
b0 5"
b0 k"
b0 :"
b0 E#
b0 C"
b0 ;"
b0 t"
b0 $#
b100000 ;#
15
#210
bx )"
bx 6#
bx 7#
bx ("
bx 8#
bx 9#
bx w"
bx |"
bx !#
bx {"
bx +#
bx *#
bx )#
bx (#
bx '#
bx &#
b11111111111111111111111111111100 C"
bx ;"
bx t"
bx $#
x/#
xK"
bx O"
bx ?"
bz <"
xB"
xA"
bzxx000 4"
bzxx000 Z"
bx 5"
bx k"
bx :"
bx E#
b0 T"
b0 T#
bx z
bx :#
bx C#
bx L#
bx S#
bx 9"
bx N#
bx Z#
#250
06
#300
05
#400
15
#410
bz C"
b0x ^"
b0x _"
bx Y"
bx X"
bx V"
bx W"
bx ."
bx h"
bx G#
bx c"
bx d"
bx e"
bx ]"
bx \"
bx `"
bx ["
bx g"
bx /"
bx i"
bx >#
bx ~
bx l"
bx F#
bx M#
xq"
xo"
xr"
xp"
xn"
xs"
bx ""
bx m"
bx =#
bx D#
bx S"
bx .#
bx R"
bx -#
bx 7"
bx H#
bx 6"
bx ?#
b11111111111111111111111111111100 D"
b11111111111111111111111111111100 <#
bx G"
bx 5#
xW#
xR
xL
xL"
bx P"
bx !
bx :
bx w
bx @"
bz "
bz <
bz v
bz ="
bx `
xb
0e
0.
1f
11
bz [
bz \
bz Z
1#
bz &
bz ]
bz 0"
bx U"
bx A#
bx J#
#500
05
#600
bx 1"
0#
15
